{
  "observable_name": "mu_tchannel_t_tbar_13TeV", 
  "measurement_name": "mu_tchannel_t_tbar_13TeV_ATLAS", 
  "arxiv": "1609.03920", 
  "CDS": "http://cds.cern.ch/record/2215404", 
  "reportnumber": "CERN-EP-2016-197", 
  "DOI": "10.1007/JHEP04(2017)086", 
  "date": "2016/09/13", 
  "experiment": "CERN LHC Run 2, ATLAS", 
  "description": "Measurement of the inclusive cross-sections of single top-quark and top-antiquark $t$-channel production in $pp$ collisions at $\\sqrt{s}$ = 13 TeV with the ATLAS detector. Measured single top plus anti-top cross section normalised to theoretical prediction of 217 pb taken from https://twiki.cern.ch/twiki/bin/view/LHCPhysics/SingleTopRefXsec#Predictions_at_7_8_13_and_14_TeV. HepData record, https://www.hepdata.net/record/ins1486394", 
  "value": 1.14, 
  "uncertainty": {
    "stat": 0.028,
    "syst":0.207,
    "lumi":0.023
  }, 
  "uncertainty_sigma": 1, 
  "th_flat": true
}