{
  "observable_name": "mu_tZ_13TeV", 
  "measurement_name": "mu_tZ_13TeV_CMS", 
  "arxiv": "1712.02825", 
  "CDS": "http://cds.cern.ch/record/2296725", 
  "reportnumber": "CMS-TOP-16-020", 
  "DOI": "10.1016/j.physletb.2018.02.025", 
  "date": "2017/12/08", 
  "experiment": "CERN LHC Run 2, CMS", 
  "description": "Measurement of the associated production of a single top quark and a Z boson in pp collisions at $\\sqrt{s} =13$ TeV. Measured signal strength for tZ cross section, Section 8.", 
  "value": 1.31, 
  "uncertainty": {
    "stat": [0.35,0.33],
    "syst": [0.31,0.25]
  }, 
  "uncertainty_sigma": 1, 
  "th_flat": true
}