{
  "observable_name": "mu_tchannel_t_13TeV", 
  "measurement_name": "mu_tchannel_t_13TeV_CMS", 
  "arxiv": "1610.00678", 
  "CDS": "http://cds.cern.ch/record/2221184", 
  "reportnumber": "CMS-TOP-16-003", 
  "DOI": "10.1016/j.physletb.2017.07.047", 
  "date": "2016/10/03", 
  "experiment": "CERN LHC Run 2, CMS", 
  "description": "Cross section measurement of t-channel single top quark production in pp collisions at sqrt(s) = 13 TeV. Measured single top cross section normalised to theoretical prediction of 136.0 pb taken from the paper.", 
  "value": 1.13, 
  "uncertainty": {
    "tot": 0.162
  }, 
  "uncertainty_sigma": 1, 
  "th_flat": true
}
