{
  "observable_name": "mu_VBF_H_bb_H_Zll_13", 
  "measurement_name": "mu_VBF_H_bb_H_Zll_ATLAS_Run2", 
  "CDS": "https://cds.cern.ch/record/2688596", 
  "reportnumber": "CERN-EP-2019-097", 
  "DOI": "10.1103/PhysRevD.101.012002", 
  "date": "06/09/2019", 
  "experiment": "CERN LHC Run 2, ATLAS", 
  "description": " '''Higgs boson signal strength for vector boson fusion production and decay to bb (Fig 5)'''", 
  "value": 3.01, 
  "uncertainty": {
    "tot": [
      1.67, 
      1.61
    ]
  }, 
  "uncertainty_sigma": 1, 
  "th_flat": true
}