{
  "name": "rGam_H_vvdd",
  "params": [ "CHq1", "CHq3", "CHQ1", "CHQ3", "CHW", "CHB", "CHWB", "CHD", "CHbox", "CHl1", "CHl3", "CHe", "CHu", "CHd", "Cll" ],

  "linear": [ 0.858, 0.24, -0.128, -0.44, 0.02, -1.02, -1.23, -0.15, 2.0, -0.82, -4.16, 0.16, -0.21, -0.05, 2.31 ],

  "lambda_gen": 246.22,
  "doc": "SMEFT relative corrections to partial Higgs width to a neutrino and an s/d quark pair."
}