{
  "params": [ "c3pl1", "c3pl2", "c3pl3", "cll" ],

  "constant": 1.0,
  "linear": [ -0.060625632451933656, -0.060621232786308245, 0.1212499450041797, 0.060621232786308245 ],

  "quadratic": [
  [ 0.0009188261692111401, 0.0009189141625236482, -0.0018376083417660258, -0.0009188481675392671 ],
 [ 0.0009189141625236482, 0.0009188261692111401, -0.0018376083417660258, -0.0009188481675392671 ],
 [ -0.0018376083417660258, -0.0018376083417660258, 0.0036752166835320515, 0.0018377403317347883 ],
 [ -0.0009188481675392671, -0.0009188481675392671, 0.0018377403317347883, 0.0009188701658673942 ]
  ],
  "lambda_gen": 1000.0
}