{
  "params": [ "c3pl1", "c3pl2", "cll" ],

  "constant": 1.0,
  "linear": [ 0.0, -2.1998e-06, 0.060625 ],

  "quadratic": [
  [ 0.00091883, -0.00091883, 4.3997e-08 ],
 [ -0.00091883, 0.00091885, 0.0 ],
 [ 4.3997e-08, 0.0, 0.00091883 ]
  ],
  "lambda_gen": 1000.0
}