{
  "observable_name": "mu_H_tataOverZZ", 
  "measurement_name": "mu_H_tataOverZZ_ATLAS_Run2", 
  "CDS": "https://cds.cern.ch/record/2688596", 
  "reportnumber": "CERN-EP-2019-097", 
  "DOI": "10.1103/PhysRevD.101.012002", 
  "date": "06/09/2019", 
  "experiment": "CERN LHC Run 2, ATLAS", 
  "description": " Ratio of H->tata and H->ZZ*->4l branching fractions", 
  "value": 0.87, 
  "uncertainty": {
    "tot": [
      0.29, 
      0.24
    ]
  }, 
  "uncertainty_sigma": 1, 
  "th_flat": true
}