{
  "observable_name": "mu_H_Za_13", 
  "measurement_name": "mu_H_Za_13_ATLAS_Run2", 
  "arxiv": "2005.05382", 
  "CDS": "http://cds.cern.ch/record/2717799", 
  "reportnumber": "CERN-EP-2020-052", 
  "DOI": "", 
  "date": "2020/05/11", 
  "experiment": "CERN LHC Run 2, ATLAS", 
  "description": "A search for the $Z\\gamma$ decay mode of the Higgs boson in $pp$  collisions at $\\sqrt{s}$ = 13 TeV with the ATLAS detector. Signal strength for H -> gamma l+l- taken from paper.", 
  "value": 2.0, 
  "uncertainty": {
    "tot": [ 1.0, 0.9 ]
  }, 
  "uncertainty_sigma": 1, 
  "th_flat": true
}