{
  "observable_name": "mu_ggF_ptH_200T300_H_Zll", 
  "measurement_name": "mu_ggF_ptH_200T300_H_Zll_ATLAS_Run2", 
  "CDS": "https://cdsweb.cern.ch/record/2725733", 
  "reportnumber": "ATLAS-CONF-2020-027", 
  "date": "03/08/2020", 
  "experiment": "CERN LHC Run 2, ATLAS", 
  "description": "STXS H -> 4l measurements (Fig. 9); STXS H -> 4l measurements (Fig. 9); STXS stage 1.2 bin: inclusive gluon fusion,  200 < ptH < 300", 
  "value": 1.19, 
  "uncertainty": {
    "syst": [ 0.15, -0.12 ],
 
    "stat": [ 0.37, -0.33 ]
  }, 
  "uncertainty_sigma": 1, 
  "th_flat": true
}