{
  "observable_name": "mu_ggF2j_mjj_350Tinf_ptH_0T200_H_Zll", 
  "measurement_name": "mu_ggF2j_mjj_350Tinf_ptH_0T200_H_Zll_ATLAS_Run2", 
  "CDS": "https://cdsweb.cern.ch/record/2725733", 
  "reportnumber": "ATLAS-CONF-2020-027", 
  "date": "03/08/2020", 
  "experiment": "CERN LHC Run 2, ATLAS", 
  "description": "STXS H -> 4l measurements (Fig. 9); STXS H -> 4l measurements (Fig. 9); STXS stage 1.2 bin: 2-jet gluon fusion,   mjj > 350 & 0 < ptH < 200", 
  "value": 1.61, 
  "uncertainty": {
    "syst": [ 0.39, -0.32 ],
 
    "stat": [ 0.73, -0.69 ]
  }, 
  "uncertainty_sigma": 1, 
  "th_flat": true
}