{
  "observable_name": "mu_ggF0j_ptH_10Tinf_H_Zll", 
  "measurement_name": "mu_ggF0j_ptH_10Tinf_H_Zll_ATLAS_Run2", 
  "CDS": "https://cdsweb.cern.ch/record/2725733", 
  "reportnumber": "ATLAS-CONF-2020-027", 
  "date": "03/08/2020", 
  "experiment": "CERN LHC Run 2, ATLAS", 
  "description": "STXS H -> 4l measurements (Fig. 9); STXS H -> 4l measurements (Fig. 9); STXS stage 1.2 bin: 0-jet gluon fusion, ptH > 10", 
  "value": 1.12, 
  "uncertainty": {
    "syst": [ 0.08, -0.07 ],
 
    "stat": [ 0.13, -0.12 ]
  }, 
  "uncertainty_sigma": 1, 
  "th_flat": true
}