{
  "observable_name": "mu_WH_ptV_75T150_H_Zll", 
  "measurement_name": "mu_WH_ptV_75T150_H_Zll_ATLAS_Run2", 
  "CDS": "https://cdsweb.cern.ch/record/2725733", 
  "reportnumber": "ATLAS-CONF-2020-027", 
  "date": "03/08/2020", 
  "experiment": "CERN LHC Run 2, ATLAS", 
  "description": "STXS H -> 4l measurements (Fig. 9); STXS H -> 4l measurements (Fig. 9); STXS stage 1.2 bin: qq->WH, 75 < ptV < 150", 
  "value": 1.7, 
  "uncertainty": {
    "syst": [ 0.2, -0.12 ],
 
    "stat": [ 0.99, -0.81 ]
  }, 
  "uncertainty_sigma": 1, 
  "th_flat": true
}