{
  "observable_name": "mu_ttW_13TeV", 
  "measurement_name": "mu_ttW_13TeV_CMS", 
  "arxiv": "1711.02547", 
  "CDS": "http://cds.cern.ch/record/2292059", 
  "reportnumber": "CMS-TOP-17-005", 
  "DOI": "10.1007/JHEP08(2018)011", 
  "date": "2017/11/07", 
  "experiment": "CERN LHC Run 2, CMS", 
  "description": "Measurement of the cross section for top quark pair production in association with a W or Z boson in proton-proton collisions at $\\sqrt{s} =$ 13 TeV. Measured ttW signal strength.", 
  "value": 1.23, 
  "uncertainty": {
    "stat": [0.19,0.18],
    "syst":[0.20,0.18]  
  }, 
  "uncertainty_sigma": 1, 
  "th_flat": true
}
