{
  "alpha_MZ_MSbar":{
    "params": ["cpWB", "cpdc", "c3pl1", "c3pl2", "cll"],
    "constant": 0.007799703611262771, 
    "linear": [-0.0017120500419173, -0.0007992669331533, -0.0004584068263754, -0.0004584068263754, 0.0004584068263754], 
    "quadratic": [
      [9.69097032397e-05, 4.524208954455e-05, 2.594788027185e-05, 2.594788027185e-05, -2.594788027185e-05], 
      [4.524208954455e-05, 2.11211736073e-05, 1.211371290495e-05, 1.211371290495e-05, -1.211371290495e-05], 
      [2.594788027185e-05, 1.211371290495e-05, 6.947627204446261e-06, 6.9476272044e-06, -6.9476272044e-06], 
      [2.594788027185e-05, 1.211371290495e-05, 6.9476272044e-06, 6.947627204446261e-06, -6.9476272044e-06], 
      [-2.594788027185e-05, -1.211371290495e-05, -6.9476272044e-06, -6.9476272044e-06, 6.947627204446261e-06]
    ], 
    "lambda_gen": 1000.0
  }
}
  