{
   "observable": "qqH_CMS11_bin5",
   "params": ["CHl3","CHl1","Cll","CHD","CHWB","CHe","CHu","CHd","CHq3","CHq1","CHbox","CHW","CHB"],
   "linear": [-0.142588,0,0.07100396,-0.04297335,-0.08338156,0.3035701,-0.2713326,0.002410466,-0.1033914,0.001173633,0.03120415,-0.03565062,-0.0004030808],
   "lambda_gen": 1000
}
