{
   "observable": "qqH_CMS11_bin3",
   "params": ["CHl3","CHl1","Cll","CHD","CHWB","CHe","CHu","CHd","CHq3","CHq1","CHbox","CHW","CHB"],
   "linear": [-1.446678,0,0.7204039,-0.4360572,-0.8460821,3.280836,-2.927535,0.02480286,-1.050414,0.008295358,0.3167042,-0.3582664,-0.004011121],
   "lambda_gen": 1000
}
