{
  "observable_name": "mu_VBF_H_aa_13", 
  "measurement_name": "mu_VBF_H_aa_CMS_Run2", 
  "arxiv": "1804.02716", 
  "CDS": "http://cds.cern.ch/record/2312121", 
  "reportnumber": "CMS-HIG-16-040", 
  "DOI": "10.1007/JHEP11(2018)185", 
  "date": "2018/04/08", 
  "experiment": "CERN LHC Run 2, CMS", 
  "description": "Measurements of Higgs boson properties in the diphoton decay channel in proton-proton collisions at $\\sqrt{s} = $ 13 TeV ( (None) )", 
  "value": 0.8, 
  "uncertainty": {
    "tot": [ 0.6, 0.5 ]
  }, 
  "uncertainty_sigma": 1, 
  "th_flat": true
}