{
  "observable_name": "mu_WH_H_WW_3-lep_13", 
  "measurement_name": "mu_WH-3-lep_H_WW_CMS_Run2", 
  "arxiv": "1806.05246", 
  "CDS": "http://cds.cern.ch/record/2624194", 
  "reportnumber": "CMS-HIG-16-042", 
  "DOI": "10.1016/j.physletb.2018.12.073", 
  "date": "2018/06/14", 
  "experiment": "CERN LHC Run 2, CMS", 
  "description": "Measurements of properties of the Higgs boson decaying to a W boson pair in pp collisions at $\\sqrt{s} = $ 13 TeV ( Tab.9 (I am currently using my WH prediction) )", 
  "value": 2.23, 
  "uncertainty": {
    "tot": [ 1.76, 1.53 ]
  }, 
  "uncertainty_sigma": 1, 
  "th_flat": true
}