{
  "observable_name": "mu_WH_H_aa_13",
  "measurement_name": "mu_WH_H_aa_13_ATLAS_Nature",
  "arxiv": "2207.00092",
  "CDS": "http://cds.cern.ch/record/2814946",
  "reportnumber": "CERN-EP-2022-057",
  "DOI": "10.1038/s41586-022-04893-w",
  "date": "2022/07/06",
  "experiment": "CERN LHC experiment. ATLAS collaboration.", 
  "description": "A detailed map of Higgs boson interactions by the ATLAS experiment ten years after the discovery", 
  "value": 1.528,
  "uncertainty": {
    "stat": [0.5002, 0.5467],
    "syst": [-0.085, 0.1232]
  },
  "uncertainty_sigma": 1,
  "th_flat": true
}