{
  "mu_dsig_dptgamma_ttgamma_13TeV_ATLAS": {
    "doc": "SMEFT predictions normalised by the SM for unfolded fiducial pT(gamma) distribution measured in JHEP 09 (2020) 049. Bin edges: [20.,25.,30.,35.,40.,47.,55.,70.,85.,132.,180.,300.].", 
    "params": [ "CG", "CtG", "CtW", "CtB", "CQq38", "CQq18", "CQu8", "CQd8", "Ctq8", "Ctu8", "Ctd8" ], 
    "constant": [ 1.0, 1.0, 1.0, 1.0, 1.0, 1.0, 1.0, 1.0, 1.0, 1.0, 1.0 ],
    "linear": [
      [ 0.069, 0.267, 0.0038, 0.0079, 0.0131, 0.0376, 0.0423, 0.0072, 0.050, 0.0248, 0.0125 ],
      [ 0.074, 0.262, 0.0061, 0.0108, 0.0129, 0.0373, 0.041,  0.0072, 0.049, 0.0245, 0.0131 ],
      [ 0.072, 0.255, 0.0083, 0.014,  0.0123, 0.0380, 0.042,  0.0072, 0.048, 0.0239, 0.0129 ],
      [ 0.075, 0.264, 0.0095, 0.016,  0.0113, 0.0370, 0.043,  0.0073, 0.050, 0.0238, 0.0139 ],
      [ 0.073, 0.259, 0.0110, 0.021,  0.0108, 0.0370, 0.043,  0.0069, 0.049, 0.0233, 0.0137 ],
      [ 0.072, 0.244, 0.0128, 0.024,  0.010,  0.0360, 0.042,  0.0072, 0.049, 0.0236, 0.0134 ],
      [ 0.076, 0.263, 0.0178, 0.034,  0.0089, 0.0371, 0.044,  0.0075, 0.052, 0.0239, 0.0145 ],
      [ 0.080, 0.250, 0.0220, 0.042,  0.009,  0.0380, 0.044,  0.0074, 0.051, 0.0234, 0.0148 ],
      [ 0.081, 0.240, 0.0269, 0.048,  0.0081, 0.0366, 0.045,  0.0072, 0.052, 0.0219, 0.0148 ],
      [ 0.100, 0.240, 0.031,  0.058,  0.0055, 0.037,  0.048,  0.0078, 0.055, 0.0223, 0.0170 ],
      [ 0.133, 0.224, 0.031,  0.056,  0.005,  0.039,  0.054,  0.0081, 0.061, 0.0227, 0.0179 ]
    ], 
    "lambda_gen": 1000.0
  }
}