{
  "mu_dsig_dyt_tbar_tchannel_13TeV_CMS": {
    "params": [ "CHQ3", "CtW", "CQq31" ],

    "constant": [ 1.0, 1.0, 1.0, 1.0 ],

    "linear": [
  [ 0.1216, 0.015, -0.351 ],
 [ 0.1215, 0.0182, -0.35 ],
 [ 0.1218, 0.0211, -0.345 ],
 [ 0.1209, 0.0318, -0.337 ]
    ],
    "quadratic": [
  [ [ 0.00366, 0.000485, -0.01065 ],
 [ 0.000485, 0.01388, -0.00275 ],
 [ -0.01065, -0.00275, 0.1309 ]
      ], [
  [ 0.003671, 0.00054, -0.010625 ],
 [ 0.00054, 0.01366, -0.0032 ],
 [ -0.010625, -0.0032, 0.1286 ]
      ], [
  [ 0.00367, 0.000615, -0.0104 ],
 [ 0.000615, 0.01328, -0.0041 ],
 [ -0.0104, -0.0041, 0.1225 ]
      ], [
  [ 0.00366, 0.00095, -0.010305 ],
 [ 0.00095, 0.01292, -0.00625 ],
 [ -0.010305, -0.00625, 0.1146 ]
      ]
    ],
    "lambda_gen": 1000.0
  }
}