{
  "mu_R_tchannel_8TeV": {
    "params": [ "CHQ3", "CtW", "CQq31" ],

    "constant": 1.0,
    "linear": [ 0.00010000000000000286, 0.040679999999999994, -0.05349999999999999 ],

    "quadratic": [
  [ -2.811000000000133e-05, -0.0011982889999999997, 0.0016892650000000023 ],
 [ -0.0011982889999999997, 0.0030324360000000003, -0.0013315629999999998 ],
 [ 0.0016892650000000023, -0.001331563, 0.03517120000000001 ]
    ],
    "lambda_gen": 1000.0
  }
}