{
  "mu_tchannel_t_tbar_8TeV": {
    "params": [ "CHQ3", "CtW", "CQq31" ],

    "constant": 1.0,
    "linear": [ 0.12116, 0.02863, -0.3314 ],

    "quadratic": [
  [ 0.003678, 0.000875, -0.01005 ],
 [ 0.000875, 0.012791, -0.0049 ],
 [ -0.01005, -0.0049, 0.08918 ]
    ],
    "lambda_gen": 1000.0
  }
}