{
  "mu_tchannel_t_13TeV": {
    "params": [ "CHQ3", "CtW", "CQq31" ],

    "constant": 1.0,
    "linear": [ 0.12143, 0.0374, -0.3656 ],

    "quadratic": [
  [ 0.003675, 0.00113, -0.01113 ],
 [ 0.00113, 0.014482, -0.00715 ],
 [ -0.01113, -0.00715, 0.152 ]
    ],
    "lambda_gen": 1000.0
  }
}