{
  "name":"r_tZ_13TeV",
  "doc": "SMEFT predictions for inclusive tZ production signal strength at 13 TeV.",
  "lambda_gen": 1000.0,
  "params": [ "CHD", "CHWB", "CHl3", "Cll", "CW", "CHQ3", "CHt", "CtW", "CQq31", "CtB", "CHQ1", "CHq1", "CHq3" ],
  "linear": [ -0.1371, -0.2787, -0.5509, 0.2616, 0.011, 0.1849, 0.0056, 0.0026, -0.574, 0.0033, 0.0207, -0.0043, 0.1565 ]
}