{
  "observable_name": "mu_ZH_H_tata_8", 
  "measurement_name": "mu_ZH_H_tata_Run1", 
  "arxiv": "1606.02266", 
  "CDS": "http://cds.cern.ch/record/2158863", 
  "DOI": "10.1007/JHEP08(2016)045", 
  "date": "2016/08/05", 
  "experiment": "LHC Run 1", 
  "description": "Higgs bosons signal strength for Z-associated production and decay to tau+ tau- (Table 8)", 
  "value": 2.2, 
  "uncertainty": {
    "tot": [ 2.2, 1.8 ]
  }, 
  "uncertainty_sigma": 1, 
  "th_flat": true
}