{
  "observable_group_name": "Z_pole_observables", 
  "observables": [
    {
      "observable_name": "Gam_Z", 
      "measurement_name": "Gam_Z", 
      "description": "Z boson total width", 
      "value": 2.4952, 
      "uncertainty": {
        "tot": 0.0023
      }, 
      "experiment": "LEP", 
      "arXiv": "hep-ex/0509008"
    }, 
    {
      "observable_name": "sigma_had_0", 
      "measurement_name": "sigma_had_0", 
      "description": "Hadronic pole cross section [nb]", 
      "value": 41.54, 
      "uncertainty": {
        "tot": 0.037
      }, 
      "experiment": "LEP", 
      "arXiv": "hep-ex/0509008"
    }, 
    {
      "observable_name": "Rl_0", 
      "measurement_name": "Rl_0", 
      "description": "Ratio of hadronic to leptonic Z-boson partial widths", 
      "value": 20.767, 
      "uncertainty": {
        "tot": 0.025
      }, 
      "experiment": "LEP", 
      "arXiv": "hep-ex/0509008"
    }, 
    {
      "observable_name": "AFB_l", 
      "measurement_name": "AFB_l", 
      "description": "Lepton forward-backward asymmetry", 
      "value": 0.0171, 
      "uncertainty": {
        "tot": 0.001
      }, 
      "experiment": "LEP", 
      "arXiv": "hep-ex/0509008"
    }, 
    {
      "observable_name": "Al", 
      "measurement_name": "Al(Pt)", 
      "description": "Lepton asymmetry parameter (Pt)", 
      "value": 0.1465, 
      "uncertainty": {
        "tot": 0.0033
      }, 
      "experiment": "LEP", 
      "arXiv": "hep-ex/0509008"
    }, 
    {
      "observable_name": "Al", 
      "measurement_name": "Al(SLD)", 
      "description": "Lepton asymmetry parameter (SLD)", 
      "value": 0.1513, 
      "uncertainty": {
        "tot": 0.0021
      }, 
      "experiment": "LEP", 
      "arXiv": "hep-ex/0509008"
    }, 
    {
      "observable_name": "Rb_0", 
      "measurement_name": "Rb_0", 
      "description": "Ratio of b-quark to hadronic Z-boson partial widths", 
      "value": 0.21629, 
      "uncertainty": {
        "tot": 0.00066
      }, 
      "experiment": "LEP", 
      "arXiv": "hep-ex/0509008"
    }, 
    {
      "observable_name": "Rc_0", 
      "measurement_name": "Rc_0", 
      "description": "Ratio of c-quark to hadronic Z-boson partial widths", 
      "value": 0.1721, 
      "uncertainty": {
        "tot": 0.003
      }, 
      "experiment": "LEP", 
      "arXiv": "hep-ex/0509008"
    }, 
    {
      "observable_name": "AFB_b", 
      "measurement_name": "AFB_b", 
      "description": "b-quark forward-backward asymmetry", 
      "value": 0.0992, 
      "uncertainty": {
        "tot": 0.0016
      }, 
      "experiment": "LEP", 
      "arXiv": "hep-ex/0509008"
    }, 
    {
      "observable_name": "AFB_c", 
      "measurement_name": "AFB_c", 
      "description": "c-quark forward-backward asymmetry", 
      "value": 0.0707, 
      "uncertainty": {
        "tot": 0.0035
      }, 
      "experiment": "LEP", 
      "arXiv": "hep-ex/0509008"
    }, 
    {
      "observable_name": "Ab", 
      "measurement_name": "Ab", 
      "description": "b-quark asymmetry parameter", 
      "value": 0.923, 
      "uncertainty": {
        "tot": 0.02
      }, 
      "experiment": "LEP", 
      "arXiv": "hep-ex/0509008"
    }, 
    {
      "observable_name": "Ac", 
      "measurement_name": "Ac", 
      "description": "Lepton asymmetry parameter", 
      "value": 0.67, 
      "uncertainty": {
        "tot": 0.027
      }, 
      "experiment": "LEP", 
      "arXiv": "hep-ex/0509008"
    }
  ], 
  "correlation_matrix": [
    [ 1.0  ,-0.297, 0.004, 0.003, 0.0  , 0.0  , 0.0  , 0.0  , 0.0  , 0.0  , 0.0  , 0.0  ],
    [-0.297, 1.0  , 0.183, 0.006, 0.0  , 0.0  , 0.0  , 0.0  , 0.0  , 0.0  , 0.0  , 0.0  ],
    [ 0.004, 0.183, 1.0  ,-0.056, 0.0  , 0.0  , 0.0  , 0.0  , 0.0  , 0.0  , 0.0  , 0.0  ],
    [ 0.003, 0.006,-0.056, 1.0  , 0.0  , 0.0  , 0.0  , 0.0  , 0.0  , 0.0  , 0.0  , 0.0  ],
    [ 0.0  , 0.0  , 0.0  , 0.0  , 1.0  , 0.0  , 0.0  , 0.0  , 0.0  , 0.0  , 0.0  , 0.0  ],
    [ 0.0  , 0.0  , 0.0  , 0.0  , 0.0  , 1.0  , 0.0  , 0.0  , 0.0  , 0.0  , 0.0  , 0.0  ],
    [ 0.0  , 0.0  , 0.0  , 0.0  , 0.0  , 0.0  , 1.0  ,-0.18 ,-0.1  , 0.07 ,-0.08 , 0.04 ],
    [ 0.0  , 0.0  , 0.0  , 0.0  , 0.0  , 0.0  ,-0.18 , 1.0  , 0.04 ,-0.06 , 0.04 ,-0.06 ],
    [ 0.0  , 0.0  , 0.0  , 0.0  , 0.0  , 0.0  ,-0.1  , 0.04 , 1.0  , 0.15 , 0.06 , 0.01 ],
    [ 0.0  , 0.0  , 0.0  , 0.0  , 0.0  , 0.0  , 0.07 ,-0.06 , 0.15 , 1.0  ,-0.02 , 0.04 ],
    [ 0.0  , 0.0  , 0.0  , 0.0  , 0.0  , 0.0  ,-0.08 , 0.04 , 0.06 ,-0.02 , 1.0  , 0.11 ],
    [ 0.0  , 0.0  , 0.0  , 0.0  , 0.0  , 0.0  , 0.04 ,-0.06 , 0.01 , 0.04 , 0.11 , 1.0  ]
  ]
}