{
  "mu_dsig_dpTZ_WZ_CMS_13TeV":{
    "params": [ "CW", "CHWB", "CHD", "Cll", "CHl3", "CHl1", "CHe", "CHq3", "CHq1", "CHu", "CHd", "CHQ1", "CHQ3"],
    "constant": [1.0, 1.0, 1.0, 1.0, 1.0, 1.0, 1.0, 1.0, 1.0, 1.0, 1.0],
    "linear": [
      [ 0.056, -0.133, -0.065,  0.160, -0.160,  0.138, -0.103, -0.007,  0.064, -0.016,  0.012, -0.021, -0.021 ]
      [ 0.045, -0.178, -0.086,  0.167, -0.181,  0.136, -0.102,  0.008,  0.072, -0.016,  0.012, -0.021, -0.021 ]
      [ 0.033, -0.211, -0.100,  0.175, -0.192,  0.133, -0.097,  0.041,  0.074, -0.016,  0.012, -0.021, -0.021 ]
      [ 0.016, -0.195, -0.099,  0.176, -0.191,  0.133, -0.092,  0.105,  0.067, -0.016,  0.012, -0.021, -0.021 ]
      [-0.006, -0.141, -0.086,  0.160, -0.161,  0.133, -0.094,  0.226,  0.057, -0.016,  0.012, -0.021, -0.021 ]
      [-0.031, -0.097, -0.069,  0.153, -0.148,  0.133, -0.095,  0.349,  0.051, -0.016,  0.012, -0.021, -0.021 ]
      [-0.048, -0.100, -0.063,  0.146, -0.143,  0.130, -0.093,  0.487,  0.046, -0.016,  0.012, -0.021, -0.021 ]
      [-0.083, -0.061, -0.057,  0.150, -0.139,  0.134, -0.099,  0.661,  0.050, -0.016,  0.012, -0.021, -0.021 ]
      [-0.104, -0.098, -0.056,  0.148, -0.138,  0.129, -0.094,  0.871,  0.034, -0.016,  0.012, -0.021, -0.021 ]
      [-0.136, -0.043, -0.046,  0.140, -0.126,  0.128, -0.089,  1.200,  0.040, -0.016,  0.012, -0.021, -0.021 ]
      [-0.188, -0.038, -0.064,  0.155, -0.130,  0.128, -0.094,  2.090,  0.033, -0.016,  0.012, -0.021, -0.021 ]
    ],
    "lambda_gen":1000.0
  }
}
