{
  "observable_name": "mu_dsig_dabsyt_ttbar_8TeV", 
  "measurement_name": "mu_dsig_dabsyt_ttbar_ljets_8TeV_ATLAS", 
  "arxiv": "1511.04716", 
  "CDS": "http://cds.cern.ch/record/2102146", 
  "reportnumber": "CERN-PH-EP-2015-239", 
  "DOI": "10.1140/epjc/s10052-016-4366-4", 
  "date": "2015/11/14", 
  "experiment": "CERN LHC Run 2, ATLAS", 
  "description": "Measurements of top-quark pair differential cross-sections in the lepton+jets channel in $pp$ collisions at $\\sqrt{s} = 8$ TeV using the ATLAS detector. HepData record, https://www.hepdata.net/record/84154. Measured full phase space absolute differential cross-section in absolute value of top rapidity, Figure 013b, auxilliary material (https://atlas.web.cern.ch/Atlas/GROUPS/PHYSICS/PAPERS/TOPQ-2015-06/#auxstuff). Bin edges: [0.,  0.4, 0.8, 1.2, 1.6, 2.5]. Normalised to theory prediction obtained with fastNLO: https://fastnlo.hepforge.org/ using tables from 1704.08551, http://www.precision.hep.phy.cam.ac.uk/results/ttbar-fastnlo/.", 
  "value":  [1.073, 1.076, 1.052, 1.047, 1.043], 
  "uncertainty": {
    "stat": [[0.007,0.007], [0.006,0.006], [0.008,0.008], [0.01 ,0.01 ], [0.013,0.013]],
    "syst": [[0.126,0.127], [0.127,0.129], [0.126,0.13 ], [0.138,0.135], [0.14 ,0.15 ]]
  }, 
  "uncertainty_sigma": 1, 
  "th_flat": true,
  "correlation_matrix":[
    [1.0  , 0.816, 0.812, 0.809, 0.76 ],
    [0.816, 1.0  , 0.815, 0.812, 0.763],
    [0.812, 0.815, 1.0  , 0.81 , 0.76 ],
    [0.809, 0.812, 0.81 , 1.0  , 0.76 ],
    [0.76 , 0.763, 0.76 , 0.76 , 1.0  ]
  ]
}

